Mitonner des beaux petits graphiques à partir des données textuelles du site Marmiton
…
Sentiments

J’associe aux mots une polarité positive ou négative

tib_mots_polarite <- tib_mots %>%
    left_join(proust_sentiments()) 

tib_mots_polarite  %>%
  group_by(word,polarity) %>% 
  summarise(n=n()) %>% 
  arrange(desc(n))

## # A tibble: 6,306 x 3
## # Groups:   word [6,306]
##    word      polarity     n
##    <chr>     <chr>    <int>
##  1 recette   positive  2813
##  2 sucre     positive  1202
##  3 mis       <NA>      1011
##  4 faire     positive   945
##  5 chocolat  positive   883
##  6 bonne     <NA>       848
##  7 super     positive   760
##  8 facile    positive   748
##  9 gâteau    positive   737
## 10 excellent positive   715
## # ... with 6,296 more rows
…
